{
  "data": {
    "curPage": 2,
    "datas": [
      {
        "apkLink": "",
        "author": "鸿洋",
        "chapterId": 408,
        "chapterName": "鸿洋",
        "collect": false,
        "courseId": 13,
        "desc": "",
        "envelopePic": "",
        "fresh": false,
        "id": 8182,
        "link": "https://mp.weixin.qq.com/s/9lytCZN_xSyGVGleCMenRA",
        "niceDate": "2019-03-28",
        "origin": "",
        "projectLink": "",
        "publishTime": 1553702400000,
        "superChapterId": 408,
        "superChapterName": "公众号",
        "tags": [
          {
            "name": "公众号",
            "url": "/wxarticle/list/408/1"
          }
        ],
        "title": "七个方面带你玩转Java线程池",
        "type": 0,
        "userId": -1,
        "visible": 1,
        "zan": 0
      },
      {
        "apkLink": "",
        "author": "郭霖",
        "chapterId": 409,
        "chapterName": "郭霖",
        "collect": false,
        "courseId": 13,
        "desc": "",
        "envelopePic": "",
        "fresh": false,
        "id": 8186,
        "link": "https://mp.weixin.qq.com/s/wE07hFTPKBo6drkqpO8YAA",
        "niceDate": "2019-03-28",
        "origin": "",
        "projectLink": "",
        "publishTime": 1553702400000,
        "superChapterId": 408,
        "superChapterName": "公众号",
        "tags": [
          {
            "name": "公众号",
            "url": "/wxarticle/list/409/1"
          }
        ],
        "title": "通过王者荣耀来学习策略模式",
        "type": 0,
        "userId": -1,
        "visible": 1,
        "zan": 0
      }
    ],
    "offset": 20,
    "over": false,
    "pageCount": 315,
    "size": 20,
    "total": 6283
  },
  "errorCode": 0,
  "errorMsg": ""
}